Program2/qrun.log
QuestaSim-64 qrun 2024.3_1 Utility 2024.10 Oct 17 2024
Start time: 01:19:47 on Aug 04,2025
qrun -batch -access=rw+/. -timescale 1ns/1ns -mfcu design.sv testbench.sv -voptargs="+acc=npr" -do " run -all; exit" 
Creating library 'qrun.out/work'.
QuestaSim-64 vlog 2024.3_1 Compiler 2024.10 Oct 17 2024
Start time: 01:19:47 on Aug 04,2025
vlog -timescale 1ns/1ns -mfcu design.sv testbench.sv -work qrun.out/work -statslog qrun.out/stats_log -writesessionid "+qrun.out/top_dus" -csession=incr 
-- Compiling module data_mem
-- Compiling module TopLevel
-- Compiling module ALU
-- Compiling module CTRL
-- Compiling module InstROM
-- Compiling module LUT
-- Compiling module ProgCtrl
-- Compiling module RegFile
-- Compiling module TopLevel0
-- Compiling module flt2fix_tb_noround

Top level modules:
	flt2fix_tb_noround
End time: 01:19:47 on Aug 04,2025, Elapsed time: 0:00:00
Errors: 0, Warnings: 0
QuestaSim-64 vopt 2024.3_1 Compiler 2024.10 Oct 17 2024
** Warning: (vopt-10587) Some optimizations are turned off because the +acc switch is in effect. This will cause your simulation to run slowly. Please use -access/-debug to maintain needed visibility. The +acc switch would be deprecated in a future release.
Start time: 01:19:48 on Aug 04,2025
vopt -access=rw+/. -timescale 1ns/1ns -mfcu "+acc=npr" -findtoplevels qrun.out/work+1+ -work qrun.out/work -statslog qrun.out/stats_log -csession=incr -o qrun_opt -csessionid=2 

Top level modules:
	flt2fix_tb_noround

Analyzing design...
-- Loading module flt2fix_tb_noround
-- Loading module TopLevel0
-- Loading module data_mem
-- Loading module TopLevel
-- Loading module ProgCtrl
-- Loading module InstROM
-- Loading module CTRL
-- Loading module RegFile
-- Loading module ALU
-- Loading module LUT
Optimizing 10 design-units (inlining 0/11 module instances):
-- Optimizing module flt2fix_tb_noround(fast)
-- Optimizing module TopLevel(fast)
-- Optimizing module TopLevel0(fast)
-- Optimizing module CTRL(fast)
-- Optimizing module RegFile(fast)
-- Optimizing module data_mem(fast)
-- Optimizing module LUT(fast)
-- Optimizing module ALU(fast)
-- Optimizing module ProgCtrl(fast)
-- Optimizing module InstROM(fast)
Optimized design name is qrun_opt
End time: 01:19:48 on Aug 04,2025, Elapsed time: 0:00:00
Errors: 0, Warnings: 1
# vsim -batch -lib qrun.out/work -do " run -all; exit" -statslog qrun.out/stats_log qrun_opt -appendlog -l qrun.log 
# Start time: 01:19:48 on Aug 04,2025
# //  Questa Sim-64
# //  Version 2024.3_1 linux_x86_64 Oct 17 2024
# //
# // Unpublished work. Copyright 2024 Siemens
# //
# // This material contains trade secrets or otherwise confidential information
# // owned by Siemens Industry Software Inc. or its affiliates (collectively,
# // "SISW"), or its licensors. Access to and use of this information is strictly
# // limited as set forth in the Customer's applicable agreements with SISW.
# //
# // This material may not be copied, distributed, or otherwise disclosed outside
# // of the Customer's facilities without the express written permission of SISW,
# // and may not be used in any way not expressly authorized by SISW.
# //
# Loading sv_std.std
# Loading work.flt2fix_tb_noround(fast)
# Loading work.TopLevel0(fast)
# Loading work.data_mem(fast)
# Loading work.TopLevel(fast)
# Loading work.ProgCtrl(fast)
# Loading work.InstROM(fast)
# Loading work.CTRL(fast)
# Loading work.RegFile(fast)
# Loading work.ALU(fast)
# Loading work.LUT(fast)
# 
# run -all
# Cycle 0: PC = 00, Instruction = 100000100, R0 = 00, R1 = 00, R2 = 00, R3 = 00, R4 = 00, R5 = 00, Zero = 1, Mem[4] = 00, Mem[5] = 00, Mem[6] = xx, Mem[7] = xx
# Cycle 1: PC = 01, Instruction = 000001000, R0 = 00, R1 = 00, R2 = 00, R3 = 00, R4 = 00, R5 = 00, Zero = 1, Mem[4] = 00, Mem[5] = 00, Mem[6] = xx, Mem[7] = xx
# Cycle 2: PC = 02, Instruction = 100000101, R0 = 00, R1 = 00, R2 = 00, R3 = 00, R4 = 00, R5 = 00, Zero = 1, Mem[4] = 00, Mem[5] = 00, Mem[6] = xx, Mem[7] = xx
# Cycle 3: PC = 00, Instruction = 100000100, R0 = 00, R1 = 00, R2 = 00, R3 = 00, R4 = 00, R5 = 00, Zero = 1, Mem[4] = 00, Mem[5] = 00, Mem[6] = xx, Mem[7] = xx
# Cycle 4: PC = 01, Instruction = 000001000, R0 = 00, R1 = 00, R2 = 00, R3 = 00, R4 = 00, R5 = 00, Zero = 1, Mem[4] = 00, Mem[5] = 00, Mem[6] = xx, Mem[7] = xx
# Cycle 5: PC = 02, Instruction = 100000101, R0 = 00, R1 = 00, R2 = 00, R3 = 00, R4 = 00, R5 = 00, Zero = 1, Mem[4] = 00, Mem[5] = 00, Mem[6] = xx, Mem[7] = xx
# Cycle 6: PC = 03, Instruction = 000010000, R0 = 00, R1 = 00, R2 = 00, R3 = 00, R4 = 00, R5 = 00, Zero = 1, Mem[4] = 00, Mem[5] = 00, Mem[6] = xx, Mem[7] = xx
# Cycle 7: PC = 04, Instruction = 010011000, R0 = 00, R1 = 00, R2 = 00, R3 = 00, R4 = 00, R5 = 00, Zero = 1, Mem[4] = 00, Mem[5] = 00, Mem[6] = xx, Mem[7] = xx
# Cycle 8: PC = 05, Instruction = 011000001, R0 = 00, R1 = 00, R2 = 00, R3 = 00, R4 = 00, R5 = 00, Zero = 1, Mem[4] = 00, Mem[5] = 00, Mem[6] = xx, Mem[7] = xx
# Cycle 9: PC = 06, Instruction = 111000000, R0 = 00, R1 = 00, R2 = 00, R3 = 00, R4 = 00, R5 = 00, Zero = 1, Mem[4] = 00, Mem[5] = 00, Mem[6] = xx, Mem[7] = xx
# Cycle 10: PC = 07, Instruction = 010000111, R0 = 00, R1 = 00, R2 = 00, R3 = 00, R4 = 00, R5 = 00, Zero = 1, Mem[4] = 00, Mem[5] = 00, Mem[6] = xx, Mem[7] = xx
# 0.000000 * 2**-15 = 0.000000 =          0
# original binary = 0_00000_0000000000
# from MAT = 0000000000000000 = 0000
# Cycle 11: PC = 08, Instruction = 111000000, R0 = 00, R1 = 00, R2 = 00, R3 = 00, R4 = 00, R5 = 00, Zero = 1, Mem[4] = 00, Mem[5] = 00, Mem[6] = xx, Mem[7] = xx
# Cycle 12: PC = 09, Instruction = 001100111, R0 = 00, R1 = 00, R2 = 00, R3 = 00, R4 = 00, R5 = 00, Zero = 1, Mem[4] = 00, Mem[5] = 00, Mem[6] = xx, Mem[7] = xx
# from dum = 0000000000000000 = 0000
# from DUT = xxxxxxxxxxxxxxxx = xxxx
#                 ct =           1, score0 =           0, score1 =            0
# Cycle 0: PC = 00, Instruction = 100000100, R0 = 00, R1 = 00, R2 = 00, R3 = 00, R4 = 00, R5 = 00, Zero = 1, Mem[4] = 00, Mem[5] = 3c, Mem[6] = xx, Mem[7] = xx
# Cycle 1: PC = 01, Instruction = 000001000, R0 = 00, R1 = 00, R2 = 00, R3 = 00, R4 = 00, R5 = 00, Zero = 1, Mem[4] = 00, Mem[5] = 3c, Mem[6] = xx, Mem[7] = xx
# Cycle 2: PC = 02, Instruction = 100000101, R0 = 00, R1 = 00, R2 = 00, R3 = 00, R4 = 00, R5 = 00, Zero = 1, Mem[4] = 00, Mem[5] = 3c, Mem[6] = xx, Mem[7] = xx
# Cycle 3: PC = 00, Instruction = 100000100, R0 = 00, R1 = 00, R2 = 00, R3 = 00, R4 = 00, R5 = 00, Zero = 1, Mem[4] = 00, Mem[5] = 3c, Mem[6] = xx, Mem[7] = xx
# Cycle 4: PC = 01, Instruction = 000001000, R0 = 00, R1 = 00, R2 = 00, R3 = 00, R4 = 00, R5 = 00, Zero = 1, Mem[4] = 00, Mem[5] = 3c, Mem[6] = xx, Mem[7] = xx
# Cycle 5: PC = 02, Instruction = 100000101, R0 = 00, R1 = 00, R2 = 00, R3 = 00, R4 = 00, R5 = 00, Zero = 1, Mem[4] = 00, Mem[5] = 3c, Mem[6] = xx, Mem[7] = xx
# Cycle 6: PC = 03, Instruction = 000010000, R0 = 00, R1 = 00, R2 = 00, R3 = 00, R4 = 00, R5 = 00, Zero = 1, Mem[4] = 00, Mem[5] = 3c, Mem[6] = xx, Mem[7] = xx
# Cycle 7: PC = 04, Instruction = 010011000, R0 = 00, R1 = 00, R2 = 00, R3 = 00, R4 = 00, R5 = 00, Zero = 1, Mem[4] = 00, Mem[5] = 3c, Mem[6] = xx, Mem[7] = xx
# Cycle 8: PC = 05, Instruction = 011000001, R0 = 00, R1 = 00, R2 = 00, R3 = 00, R4 = 00, R5 = 00, Zero = 1, Mem[4] = 00, Mem[5] = 3c, Mem[6] = xx, Mem[7] = xx
# Cycle 9: PC = 06, Instruction = 111000000, R0 = 00, R1 = 00, R2 = 00, R3 = 00, R4 = 00, R5 = 00, Zero = 1, Mem[4] = 00, Mem[5] = 3c, Mem[6] = xx, Mem[7] = xx
# Cycle 10: PC = 07, Instruction = 010000111, R0 = 00, R1 = 00, R2 = 00, R3 = 00, R4 = 00, R5 = 00, Zero = 1, Mem[4] = 00, Mem[5] = 3c, Mem[6] = xx, Mem[7] = xx
# 1.000000 * 2**  0 = 0.000000 =          1
# original binary = 0_01111_0000000000
# from MAT = 0000000100000000 = 0100
# Cycle 11: PC = 08, Instruction = 111000000, R0 = 00, R1 = 00, R2 = 00, R3 = 00, R4 = 00, R5 = 00, Zero = 1, Mem[4] = 00, Mem[5] = 3c, Mem[6] = xx, Mem[7] = xx
# Cycle 12: PC = 09, Instruction = 001100111, R0 = 00, R1 = 00, R2 = 00, R3 = 00, R4 = 00, R5 = 00, Zero = 1, Mem[4] = 00, Mem[5] = 3c, Mem[6] = xx, Mem[7] = xx
# from dum = 0000000100000000 = 0100
# from DUT = xxxxxxxxxxxxxxxx = xxxx
#                 ct =           2, score0 =           0, score1 =            0
# Cycle 0: PC = 00, Instruction = 100000100, R0 = 00, R1 = 00, R2 = 00, R3 = 00, R4 = 00, R5 = 00, Zero = 1, Mem[4] = 00, Mem[5] = 3e, Mem[6] = xx, Mem[7] = xx
# Cycle 1: PC = 01, Instruction = 000001000, R0 = 00, R1 = 00, R2 = 00, R3 = 00, R4 = 00, R5 = 00, Zero = 1, Mem[4] = 00, Mem[5] = 3e, Mem[6] = xx, Mem[7] = xx
# Cycle 2: PC = 02, Instruction = 100000101, R0 = 00, R1 = 00, R2 = 00, R3 = 00, R4 = 00, R5 = 00, Zero = 1, Mem[4] = 00, Mem[5] = 3e, Mem[6] = xx, Mem[7] = xx
# Cycle 3: PC = 00, Instruction = 100000100, R0 = 00, R1 = 00, R2 = 00, R3 = 00, R4 = 00, R5 = 00, Zero = 1, Mem[4] = 00, Mem[5] = 3e, Mem[6] = xx, Mem[7] = xx
# Cycle 4: PC = 01, Instruction = 000001000, R0 = 00, R1 = 00, R2 = 00, R3 = 00, R4 = 00, R5 = 00, Zero = 1, Mem[4] = 00, Mem[5] = 3e, Mem[6] = xx, Mem[7] = xx
# Cycle 5: PC = 02, Instruction = 100000101, R0 = 00, R1 = 00, R2 = 00, R3 = 00, R4 = 00, R5 = 00, Zero = 1, Mem[4] = 00, Mem[5] = 3e, Mem[6] = xx, Mem[7] = xx
# Cycle 6: PC = 03, Instruction = 000010000, R0 = 00, R1 = 00, R2 = 00, R3 = 00, R4 = 00, R5 = 00, Zero = 1, Mem[4] = 00, Mem[5] = 3e, Mem[6] = xx, Mem[7] = xx
# Cycle 7: PC = 04, Instruction = 010011000, R0 = 00, R1 = 00, R2 = 00, R3 = 00, R4 = 00, R5 = 00, Zero = 1, Mem[4] = 00, Mem[5] = 3e, Mem[6] = xx, Mem[7] = xx
# Cycle 8: PC = 05, Instruction = 011000001, R0 = 00, R1 = 00, R2 = 00, R3 = 00, R4 = 00, R5 = 00, Zero = 1, Mem[4] = 00, Mem[5] = 3e, Mem[6] = xx, Mem[7] = xx
# Cycle 9: PC = 06, Instruction = 111000000, R0 = 00, R1 = 00, R2 = 00, R3 = 00, R4 = 00, R5 = 00, Zero = 1, Mem[4] = 00, Mem[5] = 3e, Mem[6] = xx, Mem[7] = xx
# Cycle 10: PC = 07, Instruction = 010000111, R0 = 00, R1 = 00, R2 = 00, R3 = 00, R4 = 00, R5 = 00, Zero = 1, Mem[4] = 00, Mem[5] = 3e, Mem[6] = xx, Mem[7] = xx
# 1.500000 * 2**  0 = 0.000000 =          2
# original binary = 0_01111_1000000000
# from MAT = 0000000110000000 = 0180
# Cycle 11: PC = 08, Instruction = 111000000, R0 = 00, R1 = 00, R2 = 00, R3 = 00, R4 = 00, R5 = 00, Zero = 1, Mem[4] = 00, Mem[5] = 3e, Mem[6] = xx, Mem[7] = xx
# Cycle 12: PC = 09, Instruction = 001100111, R0 = 00, R1 = 00, R2 = 00, R3 = 00, R4 = 00, R5 = 00, Zero = 1, Mem[4] = 00, Mem[5] = 3e, Mem[6] = xx, Mem[7] = xx
# from dum = 0000000110000000 = 0180
# from DUT = xxxxxxxxxxxxxxxx = xxxx
#                 ct =           3, score0 =           0, score1 =            0
# Cycle 0: PC = 00, Instruction = 100000100, R0 = 00, R1 = 00, R2 = 00, R3 = 00, R4 = 00, R5 = 00, Zero = 1, Mem[4] = 00, Mem[5] = 3d, Mem[6] = xx, Mem[7] = xx
# Cycle 1: PC = 01, Instruction = 000001000, R0 = 00, R1 = 00, R2 = 00, R3 = 00, R4 = 00, R5 = 00, Zero = 1, Mem[4] = 00, Mem[5] = 3d, Mem[6] = xx, Mem[7] = xx
# Cycle 2: PC = 02, Instruction = 100000101, R0 = 00, R1 = 00, R2 = 00, R3 = 00, R4 = 00, R5 = 00, Zero = 1, Mem[4] = 00, Mem[5] = 3d, Mem[6] = xx, Mem[7] = xx
# Cycle 3: PC = 00, Instruction = 100000100, R0 = 00, R1 = 00, R2 = 00, R3 = 00, R4 = 00, R5 = 00, Zero = 1, Mem[4] = 00, Mem[5] = 3d, Mem[6] = xx, Mem[7] = xx
# Cycle 4: PC = 01, Instruction = 000001000, R0 = 00, R1 = 00, R2 = 00, R3 = 00, R4 = 00, R5 = 00, Zero = 1, Mem[4] = 00, Mem[5] = 3d, Mem[6] = xx, Mem[7] = xx
# Cycle 5: PC = 02, Instruction = 100000101, R0 = 00, R1 = 00, R2 = 00, R3 = 00, R4 = 00, R5 = 00, Zero = 1, Mem[4] = 00, Mem[5] = 3d, Mem[6] = xx, Mem[7] = xx
# Cycle 6: PC = 03, Instruction = 000010000, R0 = 00, R1 = 00, R2 = 00, R3 = 00, R4 = 00, R5 = 00, Zero = 1, Mem[4] = 00, Mem[5] = 3d, Mem[6] = xx, Mem[7] = xx
# Cycle 7: PC = 04, Instruction = 010011000, R0 = 00, R1 = 00, R2 = 00, R3 = 00, R4 = 00, R5 = 00, Zero = 1, Mem[4] = 00, Mem[5] = 3d, Mem[6] = xx, Mem[7] = xx
# Cycle 8: PC = 05, Instruction = 011000001, R0 = 00, R1 = 00, R2 = 00, R3 = 00, R4 = 00, R5 = 00, Zero = 1, Mem[4] = 00, Mem[5] = 3d, Mem[6] = xx, Mem[7] = xx
# Cycle 9: PC = 06, Instruction = 111000000, R0 = 00, R1 = 00, R2 = 00, R3 = 00, R4 = 00, R5 = 00, Zero = 1, Mem[4] = 00, Mem[5] = 3d, Mem[6] = xx, Mem[7] = xx
# Cycle 10: PC = 07, Instruction = 010000111, R0 = 00, R1 = 00, R2 = 00, R3 = 00, R4 = 00, R5 = 00, Zero = 1, Mem[4] = 00, Mem[5] = 3d, Mem[6] = xx, Mem[7] = xx
# 1.250000 * 2**  0 = 0.000000 =          1
# original binary = 0_01111_0100000000
# from MAT = 0000000101000000 = 0140
# Cycle 11: PC = 08, Instruction = 111000000, R0 = 00, R1 = 00, R2 = 00, R3 = 00, R4 = 00, R5 = 00, Zero = 1, Mem[4] = 00, Mem[5] = 3d, Mem[6] = xx, Mem[7] = xx
# Cycle 12: PC = 09, Instruction = 001100111, R0 = 00, R1 = 00, R2 = 00, R3 = 00, R4 = 00, R5 = 00, Zero = 1, Mem[4] = 00, Mem[5] = 3d, Mem[6] = xx, Mem[7] = xx
# from dum = 0000000101000000 = 0140
# from DUT = xxxxxxxxxxxxxxxx = xxxx
#                 ct =           4, score0 =           0, score1 =            0
# Cycle 0: PC = 00, Instruction = 100000100, R0 = 00, R1 = 00, R2 = 00, R3 = 00, R4 = 00, R5 = 00, Zero = 1, Mem[4] = 00, Mem[5] = 3f, Mem[6] = xx, Mem[7] = xx
# Cycle 1: PC = 01, Instruction = 000001000, R0 = 00, R1 = 00, R2 = 00, R3 = 00, R4 = 00, R5 = 00, Zero = 1, Mem[4] = 00, Mem[5] = 3f, Mem[6] = xx, Mem[7] = xx
# Cycle 2: PC = 02, Instruction = 100000101, R0 = 00, R1 = 00, R2 = 00, R3 = 00, R4 = 00, R5 = 00, Zero = 1, Mem[4] = 00, Mem[5] = 3f, Mem[6] = xx, Mem[7] = xx
# Cycle 3: PC = 00, Instruction = 100000100, R0 = 00, R1 = 00, R2 = 00, R3 = 00, R4 = 00, R5 = 00, Zero = 1, Mem[4] = 00, Mem[5] = 3f, Mem[6] = xx, Mem[7] = xx
# Cycle 4: PC = 01, Instruction = 000001000, R0 = 00, R1 = 00, R2 = 00, R3 = 00, R4 = 00, R5 = 00, Zero = 1, Mem[4] = 00, Mem[5] = 3f, Mem[6] = xx, Mem[7] = xx
# Cycle 5: PC = 02, Instruction = 100000101, R0 = 00, R1 = 00, R2 = 00, R3 = 00, R4 = 00, R5 = 00, Zero = 1, Mem[4] = 00, Mem[5] = 3f, Mem[6] = xx, Mem[7] = xx
# Cycle 6: PC = 03, Instruction = 000010000, R0 = 00, R1 = 00, R2 = 00, R3 = 00, R4 = 00, R5 = 00, Zero = 1, Mem[4] = 00, Mem[5] = 3f, Mem[6] = xx, Mem[7] = xx
# Cycle 7: PC = 04, Instruction = 010011000, R0 = 00, R1 = 00, R2 = 00, R3 = 00, R4 = 00, R5 = 00, Zero = 1, Mem[4] = 00, Mem[5] = 3f, Mem[6] = xx, Mem[7] = xx
# Cycle 8: PC = 05, Instruction = 011000001, R0 = 00, R1 = 00, R2 = 00, R3 = 00, R4 = 00, R5 = 00, Zero = 1, Mem[4] = 00, Mem[5] = 3f, Mem[6] = xx, Mem[7] = xx
# Cycle 9: PC = 06, Instruction = 111000000, R0 = 00, R1 = 00, R2 = 00, R3 = 00, R4 = 00, R5 = 00, Zero = 1, Mem[4] = 00, Mem[5] = 3f, Mem[6] = xx, Mem[7] = xx
# Cycle 10: PC = 07, Instruction = 010000111, R0 = 00, R1 = 00, R2 = 00, R3 = 00, R4 = 00, R5 = 00, Zero = 1, Mem[4] = 00, Mem[5] = 3f, Mem[6] = xx, Mem[7] = xx
# 1.750000 * 2**  0 = 0.000000 =          2
# original binary = 0_01111_1100000000
# from MAT = 0000000111000000 = 01c0
# Cycle 11: PC = 08, Instruction = 111000000, R0 = 00, R1 = 00, R2 = 00, R3 = 00, R4 = 00, R5 = 00, Zero = 1, Mem[4] = 00, Mem[5] = 3f, Mem[6] = xx, Mem[7] = xx
# Cycle 12: PC = 09, Instruction = 001100111, R0 = 00, R1 = 00, R2 = 00, R3 = 00, R4 = 00, R5 = 00, Zero = 1, Mem[4] = 00, Mem[5] = 3f, Mem[6] = xx, Mem[7] = xx
# from dum = 0000000111000000 = 01c0
# from DUT = xxxxxxxxxxxxxxxx = xxxx
#                 ct =           5, score0 =           0, score1 =            0
# Cycle 0: PC = 00, Instruction = 100000100, R0 = 00, R1 = 00, R2 = 00, R3 = 00, R4 = 00, R5 = 00, Zero = 1, Mem[4] = 00, Mem[5] = 40, Mem[6] = xx, Mem[7] = xx
# Cycle 1: PC = 01, Instruction = 000001000, R0 = 00, R1 = 00, R2 = 00, R3 = 00, R4 = 00, R5 = 00, Zero = 1, Mem[4] = 00, Mem[5] = 40, Mem[6] = xx, Mem[7] = xx
# Cycle 2: PC = 02, Instruction = 100000101, R0 = 00, R1 = 00, R2 = 00, R3 = 00, R4 = 00, R5 = 00, Zero = 1, Mem[4] = 00, Mem[5] = 40, Mem[6] = xx, Mem[7] = xx
# Cycle 3: PC = 00, Instruction = 100000100, R0 = 00, R1 = 00, R2 = 00, R3 = 00, R4 = 00, R5 = 00, Zero = 1, Mem[4] = 00, Mem[5] = 40, Mem[6] = xx, Mem[7] = xx
# Cycle 4: PC = 01, Instruction = 000001000, R0 = 00, R1 = 00, R2 = 00, R3 = 00, R4 = 00, R5 = 00, Zero = 1, Mem[4] = 00, Mem[5] = 40, Mem[6] = xx, Mem[7] = xx
# Cycle 5: PC = 02, Instruction = 100000101, R0 = 00, R1 = 00, R2 = 00, R3 = 00, R4 = 00, R5 = 00, Zero = 1, Mem[4] = 00, Mem[5] = 40, Mem[6] = xx, Mem[7] = xx
# Cycle 6: PC = 03, Instruction = 000010000, R0 = 00, R1 = 00, R2 = 00, R3 = 00, R4 = 00, R5 = 00, Zero = 1, Mem[4] = 00, Mem[5] = 40, Mem[6] = xx, Mem[7] = xx
# Cycle 7: PC = 04, Instruction = 010011000, R0 = 00, R1 = 00, R2 = 00, R3 = 00, R4 = 00, R5 = 00, Zero = 1, Mem[4] = 00, Mem[5] = 40, Mem[6] = xx, Mem[7] = xx
# Cycle 8: PC = 05, Instruction = 011000001, R0 = 00, R1 = 00, R2 = 00, R3 = 00, R4 = 00, R5 = 00, Zero = 1, Mem[4] = 00, Mem[5] = 40, Mem[6] = xx, Mem[7] = xx
# Cycle 9: PC = 06, Instruction = 111000000, R0 = 00, R1 = 00, R2 = 00, R3 = 00, R4 = 00, R5 = 00, Zero = 1, Mem[4] = 00, Mem[5] = 40, Mem[6] = xx, Mem[7] = xx
# Cycle 10: PC = 07, Instruction = 010000111, R0 = 00, R1 = 00, R2 = 00, R3 = 00, R4 = 00, R5 = 00, Zero = 1, Mem[4] = 00, Mem[5] = 40, Mem[6] = xx, Mem[7] = xx
# 1.000000 * 2**  1 = 0.000000 =          2
# original binary = 0_10000_0000000000
# from MAT = 0000001000000000 = 0200
# Cycle 11: PC = 08, Instruction = 111000000, R0 = 00, R1 = 00, R2 = 00, R3 = 00, R4 = 00, R5 = 00, Zero = 1, Mem[4] = 00, Mem[5] = 40, Mem[6] = xx, Mem[7] = xx
# Cycle 12: PC = 09, Instruction = 001100111, R0 = 00, R1 = 00, R2 = 00, R3 = 00, R4 = 00, R5 = 00, Zero = 1, Mem[4] = 00, Mem[5] = 40, Mem[6] = xx, Mem[7] = xx
# from dum = 0000001000000000 = 0200
# from DUT = xxxxxxxxxxxxxxxx = xxxx
#                 ct =           6, score0 =           0, score1 =            0
# Cycle 0: PC = 00, Instruction = 100000100, R0 = 00, R1 = 00, R2 = 00, R3 = 00, R4 = 00, R5 = 00, Zero = 1, Mem[4] = 00, Mem[5] = 42, Mem[6] = xx, Mem[7] = xx
# Cycle 1: PC = 01, Instruction = 000001000, R0 = 00, R1 = 00, R2 = 00, R3 = 00, R4 = 00, R5 = 00, Zero = 1, Mem[4] = 00, Mem[5] = 42, Mem[6] = xx, Mem[7] = xx
# Cycle 2: PC = 02, Instruction = 100000101, R0 = 00, R1 = 00, R2 = 00, R3 = 00, R4 = 00, R5 = 00, Zero = 1, Mem[4] = 00, Mem[5] = 42, Mem[6] = xx, Mem[7] = xx
# Cycle 3: PC = 00, Instruction = 100000100, R0 = 00, R1 = 00, R2 = 00, R3 = 00, R4 = 00, R5 = 00, Zero = 1, Mem[4] = 00, Mem[5] = 42, Mem[6] = xx, Mem[7] = xx
# Cycle 4: PC = 01, Instruction = 000001000, R0 = 00, R1 = 00, R2 = 00, R3 = 00, R4 = 00, R5 = 00, Zero = 1, Mem[4] = 00, Mem[5] = 42, Mem[6] = xx, Mem[7] = xx
# Cycle 5: PC = 02, Instruction = 100000101, R0 = 00, R1 = 00, R2 = 00, R3 = 00, R4 = 00, R5 = 00, Zero = 1, Mem[4] = 00, Mem[5] = 42, Mem[6] = xx, Mem[7] = xx
# Cycle 6: PC = 03, Instruction = 000010000, R0 = 00, R1 = 00, R2 = 00, R3 = 00, R4 = 00, R5 = 00, Zero = 1, Mem[4] = 00, Mem[5] = 42, Mem[6] = xx, Mem[7] = xx
# Cycle 7: PC = 04, Instruction = 010011000, R0 = 00, R1 = 00, R2 = 00, R3 = 00, R4 = 00, R5 = 00, Zero = 1, Mem[4] = 00, Mem[5] = 42, Mem[6] = xx, Mem[7] = xx
# Cycle 8: PC = 05, Instruction = 011000001, R0 = 00, R1 = 00, R2 = 00, R3 = 00, R4 = 00, R5 = 00, Zero = 1, Mem[4] = 00, Mem[5] = 42, Mem[6] = xx, Mem[7] = xx
# Cycle 9: PC = 06, Instruction = 111000000, R0 = 00, R1 = 00, R2 = 00, R3 = 00, R4 = 00, R5 = 00, Zero = 1, Mem[4] = 00, Mem[5] = 42, Mem[6] = xx, Mem[7] = xx
# Cycle 10: PC = 07, Instruction = 010000111, R0 = 00, R1 = 00, R2 = 00, R3 = 00, R4 = 00, R5 = 00, Zero = 1, Mem[4] = 00, Mem[5] = 42, Mem[6] = xx, Mem[7] = xx
# 1.500000 * 2**  1 = 0.000000 =          3
# original binary = 0_10000_1000000000
# from MAT = 0000001100000000 = 0300
# Cycle 11: PC = 08, Instruction = 111000000, R0 = 00, R1 = 00, R2 = 00, R3 = 00, R4 = 00, R5 = 00, Zero = 1, Mem[4] = 00, Mem[5] = 42, Mem[6] = xx, Mem[7] = xx
# Cycle 12: PC = 09, Instruction = 001100111, R0 = 00, R1 = 00, R2 = 00, R3 = 00, R4 = 00, R5 = 00, Zero = 1, Mem[4] = 00, Mem[5] = 42, Mem[6] = xx, Mem[7] = xx
# from dum = 0000001100000000 = 0300
# from DUT = xxxxxxxxxxxxxxxx = xxxx
#                 ct =           7, score0 =           0, score1 =            0
# Cycle 0: PC = 00, Instruction = 100000100, R0 = 00, R1 = 00, R2 = 00, R3 = 00, R4 = 00, R5 = 00, Zero = 1, Mem[4] = 00, Mem[5] = 43, Mem[6] = xx, Mem[7] = xx
# Cycle 1: PC = 01, Instruction = 000001000, R0 = 00, R1 = 00, R2 = 00, R3 = 00, R4 = 00, R5 = 00, Zero = 1, Mem[4] = 00, Mem[5] = 43, Mem[6] = xx, Mem[7] = xx
# Cycle 2: PC = 02, Instruction = 100000101, R0 = 00, R1 = 00, R2 = 00, R3 = 00, R4 = 00, R5 = 00, Zero = 1, Mem[4] = 00, Mem[5] = 43, Mem[6] = xx, Mem[7] = xx
# Cycle 3: PC = 00, Instruction = 100000100, R0 = 00, R1 = 00, R2 = 00, R3 = 00, R4 = 00, R5 = 00, Zero = 1, Mem[4] = 00, Mem[5] = 43, Mem[6] = xx, Mem[7] = xx
# Cycle 4: PC = 01, Instruction = 000001000, R0 = 00, R1 = 00, R2 = 00, R3 = 00, R4 = 00, R5 = 00, Zero = 1, Mem[4] = 00, Mem[5] = 43, Mem[6] = xx, Mem[7] = xx
# Cycle 5: PC = 02, Instruction = 100000101, R0 = 00, R1 = 00, R2 = 00, R3 = 00, R4 = 00, R5 = 00, Zero = 1, Mem[4] = 00, Mem[5] = 43, Mem[6] = xx, Mem[7] = xx
# Cycle 6: PC = 03, Instruction = 000010000, R0 = 00, R1 = 00, R2 = 00, R3 = 00, R4 = 00, R5 = 00, Zero = 1, Mem[4] = 00, Mem[5] = 43, Mem[6] = xx, Mem[7] = xx
# Cycle 7: PC = 04, Instruction = 010011000, R0 = 00, R1 = 00, R2 = 00, R3 = 00, R4 = 00, R5 = 00, Zero = 1, Mem[4] = 00, Mem[5] = 43, Mem[6] = xx, Mem[7] = xx
# Cycle 8: PC = 05, Instruction = 011000001, R0 = 00, R1 = 00, R2 = 00, R3 = 00, R4 = 00, R5 = 00, Zero = 1, Mem[4] = 00, Mem[5] = 43, Mem[6] = xx, Mem[7] = xx
# Cycle 9: PC = 06, Instruction = 111000000, R0 = 00, R1 = 00, R2 = 00, R3 = 00, R4 = 00, R5 = 00, Zero = 1, Mem[4] = 00, Mem[5] = 43, Mem[6] = xx, Mem[7] = xx
# Cycle 10: PC = 07, Instruction = 010000111, R0 = 00, R1 = 00, R2 = 00, R3 = 00, R4 = 00, R5 = 00, Zero = 1, Mem[4] = 00, Mem[5] = 43, Mem[6] = xx, Mem[7] = xx
# 1.750000 * 2**  1 = 0.000000 =          4
# original binary = 0_10000_1100000000
# from MAT = 0000001110000000 = 0380
# Cycle 11: PC = 08, Instruction = 111000000, R0 = 00, R1 = 00, R2 = 00, R3 = 00, R4 = 00, R5 = 00, Zero = 1, Mem[4] = 00, Mem[5] = 43, Mem[6] = xx, Mem[7] = xx
# Cycle 12: PC = 09, Instruction = 001100111, R0 = 00, R1 = 00, R2 = 00, R3 = 00, R4 = 00, R5 = 00, Zero = 1, Mem[4] = 00, Mem[5] = 43, Mem[6] = xx, Mem[7] = xx
# from dum = 0000001110000000 = 0380
# from DUT = xxxxxxxxxxxxxxxx = xxxx
#                 ct =           8, score0 =           0, score1 =            0
# Cycle 0: PC = 00, Instruction = 100000100, R0 = 00, R1 = 00, R2 = 00, R3 = 00, R4 = 00, R5 = 00, Zero = 1, Mem[4] = 80, Mem[5] = 43, Mem[6] = xx, Mem[7] = xx
# Cycle 1: PC = 01, Instruction = 000001000, R0 = 00, R1 = 00, R2 = 00, R3 = 00, R4 = 00, R5 = 00, Zero = 1, Mem[4] = 80, Mem[5] = 43, Mem[6] = xx, Mem[7] = xx
# Cycle 2: PC = 02, Instruction = 100000101, R0 = 00, R1 = 00, R2 = 00, R3 = 00, R4 = 00, R5 = 00, Zero = 1, Mem[4] = 80, Mem[5] = 43, Mem[6] = xx, Mem[7] = xx
# Cycle 3: PC = 00, Instruction = 100000100, R0 = 00, R1 = 00, R2 = 00, R3 = 00, R4 = 00, R5 = 00, Zero = 1, Mem[4] = 80, Mem[5] = 43, Mem[6] = xx, Mem[7] = xx
