Program1/qrun.log
QuestaSim-64 qrun 2024.3_1 Utility 2024.10 Oct 17 2024
Start time: 07:34:30 on Aug 01,2025
qrun -batch -access=rw+/. -timescale 1ns/1ns -mfcu design.sv testbench.sv -voptargs="+acc=npr" -do " run -all; exit" 
Creating library 'qrun.out/work'.
QuestaSim-64 vlog 2024.3_1 Compiler 2024.10 Oct 17 2024
Start time: 07:34:30 on Aug 01,2025
vlog -timescale 1ns/1ns -mfcu design.sv testbench.sv -work qrun.out/work -statslog qrun.out/stats_log -writesessionid "+qrun.out/top_dus" -csession=incr 
-- Compiling module data_mem0
-- Compiling module TopLevel0
-- Compiling module ALU
-- Compiling module CTRL
-- Compiling module data_mem
-- Compiling module InstROM
-- Compiling module LUT
-- Compiling module ProgCtrl
-- Compiling module RegFile
-- Compiling module TopLevel
-- Compiling module new_int2flt_tb

Top level modules:
	data_mem0
	new_int2flt_tb
End time: 07:34:30 on Aug 01,2025, Elapsed time: 0:00:00
Errors: 0, Warnings: 0
QuestaSim-64 vopt 2024.3_1 Compiler 2024.10 Oct 17 2024
** Warning: (vopt-10587) Some optimizations are turned off because the +acc switch is in effect. This will cause your simulation to run slowly. Please use -access/-debug to maintain needed visibility. The +acc switch would be deprecated in a future release.
Start time: 07:34:30 on Aug 01,2025
vopt -access=rw+/. -timescale 1ns/1ns -mfcu "+acc=npr" -findtoplevels qrun.out/work+1+ -work qrun.out/work -statslog qrun.out/stats_log -csession=incr -o qrun_opt -csessionid=2 

Top level modules:
	data_mem0
	new_int2flt_tb

Analyzing design...
-- Loading module data_mem0
-- Loading module new_int2flt_tb
-- Loading module TopLevel
-- Loading module ProgCtrl
-- Loading module InstROM
-- Loading module CTRL
-- Loading module RegFile
-- Loading module ALU
-- Loading module data_mem
-- Loading module LUT
-- Loading module TopLevel0
Optimizing 11 design-units (inlining 0/12 module instances):
-- Optimizing module new_int2flt_tb(fast)
-- Optimizing module TopLevel(fast)
-- Optimizing module TopLevel0(fast)
-- Optimizing module InstROM(fast)
-- Optimizing module CTRL(fast)
-- Optimizing module RegFile(fast)
-- Optimizing module data_mem(fast)
-- Optimizing module data_mem0(fast)
-- Optimizing module ProgCtrl(fast)
-- Optimizing module ALU(fast)
-- Optimizing module LUT(fast)
Optimized design name is qrun_opt
End time: 07:34:31 on Aug 01,2025, Elapsed time: 0:00:01
Errors: 0, Warnings: 1
# vsim -batch -lib qrun.out/work -do " run -all; exit" -statslog qrun.out/stats_log qrun_opt -appendlog -l qrun.log 
# Start time: 07:34:31 on Aug 01,2025
# //  Questa Sim-64
# //  Version 2024.3_1 linux_x86_64 Oct 17 2024
# //
# // Unpublished work. Copyright 2024 Siemens
# //
# // This material contains trade secrets or otherwise confidential information
# // owned by Siemens Industry Software Inc. or its affiliates (collectively,
# // "SISW"), or its licensors. Access to and use of this information is strictly
# // limited as set forth in the Customer's applicable agreements with SISW.
# //
# // This material may not be copied, distributed, or otherwise disclosed outside
# // of the Customer's facilities without the express written permission of SISW,
# // and may not be used in any way not expressly authorized by SISW.
# //
# Loading sv_std.std
# Loading work.data_mem0(fast)
# Loading work.new_int2flt_tb(fast)
# Loading work.TopLevel(fast)
# Loading work.ProgCtrl(fast)
# Loading work.InstROM(fast)
# Loading work.CTRL(fast)
# Loading work.RegFile(fast)
# Loading work.ALU(fast)
# Loading work.data_mem(fast)
# Loading work.LUT(fast)
# Loading work.TopLevel0(fast)
# 
# run -all
#  
# Instruction = xxxxxxxxx, Opcode = xxx
# Instruction = 100000000, Opcode = xxx
# Cycle 0: PC = 00, Instruction = 100, R0 = 00, R1 = 00, R2 = 00, R3 = 00, R4 = 00 (exp), R5 = 00 (counter), Zero = 1, ALU_out = 00, branch = 0, branch_conditional = 0, target = 0f, Mem[0] = 00, Mem[1] = 00, Mem[2] = xx, Mem[3] = xx
# Cycle: Branch = 0, Branch_conditional = 0, Zero = 1, Target = 0f, Current PC = 00, Next PC = 00000001
# Instruction = 000001000, Opcode = xxx
# Cycle: Branch = 0, Branch_conditional = 0, Zero = 1, Target = 00, Current PC = 01, Next PC = 00000002
# Cycle 1: PC = 01, Instruction = 008, R0 = 00, R1 = 00, R2 = 00, R3 = 00, R4 = 00 (exp), R5 = 00 (counter), Zero = 1, ALU_out = 00, branch = 0, branch_conditional = 0, target = 00, Mem[0] = 00, Mem[1] = 00, Mem[2] = xx, Mem[3] = xx
# Instruction = 100000001, Opcode = xxx
# Cycle 2: PC = 02, Instruction = 101, R0 = 00, R1 = 00, R2 = 00, R3 = 00, R4 = 00 (exp), R5 = 00 (counter), Zero = 1, ALU_out = 00, branch = 0, branch_conditional = 0, target = 0f, Mem[0] = 00, Mem[1] = 00, Mem[2] = xx, Mem[3] = xx
# Instruction = 100000000, Opcode = xxx
# Cycle: Branch = 0, Branch_conditional = 0, Zero = 1, Target = 0f, Current PC = 00, Next PC = 00000001
# Cycle 3: PC = 00, Instruction = 100, R0 = 00, R1 = 00, R2 = 00, R3 = 00, R4 = 00 (exp), R5 = 00 (counter), Zero = 1, ALU_out = 00, branch = 0, branch_conditional = 0, target = 0f, Mem[0] = 00, Mem[1] = 00, Mem[2] = xx, Mem[3] = xx
# Instruction = 000001000, Opcode = xxx
# Cycle 4: PC = 01, Instruction = 008, R0 = 00, R1 = 00, R2 = 00, R3 = 00, R4 = 00 (exp), R5 = 00 (counter), Zero = 1, ALU_out = 00, branch = 0, branch_conditional = 0, target = 00, Mem[0] = 00, Mem[1] = 00, Mem[2] = xx, Mem[3] = xx
# Cycle: Branch = 0, Branch_conditional = 0, Zero = 1, Target = 00, Current PC = 01, Next PC = 00000002
# Instruction = 100000001, Opcode = xxx
# Cycle: Branch = 0, Branch_conditional = 0, Zero = 1, Target = 0f, Current PC = 02, Next PC = 00000003
# Cycle 5: PC = 02, Instruction = 101, R0 = 00, R1 = 00, R2 = 00, R3 = 00, R4 = 00 (exp), R5 = 00 (counter), Zero = 1, ALU_out = 00, branch = 0, branch_conditional = 0, target = 0f, Mem[0] = 00, Mem[1] = 00, Mem[2] = xx, Mem[3] = xx
# Instruction = 000010000, Opcode = xxx
# Cycle 6: PC = 03, Instruction = 010, R0 = 00, R1 = 00, R2 = 00, R3 = 00, R4 = 00 (exp), R5 = 00 (counter), Zero = 1, ALU_out = 00, branch = 0, branch_conditional = 0, target = 00, Mem[0] = 00, Mem[1] = 00, Mem[2] = xx, Mem[3] = xx
# Cycle: Branch = 0, Branch_conditional = 0, Zero = 1, Target = 00, Current PC = 03, Next PC = 00000004
# Instruction = 010011000, Opcode = xxx
# Cycle: Branch = 0, Branch_conditional = 0, Zero = 1, Target = 00, Current PC = 04, Next PC = 00000005
# Cycle 7: PC = 04, Instruction = 098, R0 = 00, R1 = 00, R2 = 00, R3 = 00, R4 = 00 (exp), R5 = 00 (counter), Zero = 1, ALU_out = 00, branch = 0, branch_conditional = 0, target = 00, Mem[0] = 00, Mem[1] = 00, Mem[2] = xx, Mem[3] = xx
# Instruction = 011000001, Opcode = xxx
# Cycle 8: PC = 05, Instruction = 0c1, R0 = 00, R1 = 00, R2 = 00, R3 = 00, R4 = 00 (exp), R5 = 00 (counter), Zero = 1, ALU_out = 00, branch = 0, branch_conditional = 0, target = 0f, Mem[0] = 00, Mem[1] = 00, Mem[2] = xx, Mem[3] = xx
# Cycle: Branch = 0, Branch_conditional = 0, Zero = 1, Target = 0f, Current PC = 05, Next PC = 00000006
# Instruction = 111000000, Opcode = xxx
# Cycle: Branch = 0, Branch_conditional = 0, Zero = 1, Target = 0f, Current PC = 06, Next PC = 00000007
# Cycle 9: PC = 06, Instruction = 1c0, R0 = 00, R1 = 00, R2 = 00, R3 = 00, R4 = 00 (exp), R5 = 00 (counter), Zero = 1, ALU_out = 00, branch = 0, branch_conditional = 0, target = 0f, Mem[0] = 00, Mem[1] = 00, Mem[2] = xx, Mem[3] = xx
# Instruction = 001000010, Opcode = xxx
# what's feeding the case 0000000000000000
# IN=0x0000,  DUT=0xxxxx, REF=0x00xx, MATH=0x0000
# Mismatch DUT vs REF: DUT=0xxxxx REF=0x00xx
# Mismatch DUT vs MATH: DUT=0xxxxx MATH=0x0000
# Scores so far: vs REF=0, vs MATH=0, tests=1
#  
# Instruction = 100000000, Opcode = xxx
# Cycle: Branch = 0, Branch_conditional = 0, Zero = 1, Target = 0f, Current PC = 00, Next PC = 00000001
# Cycle 0: PC = 00, Instruction = 100, R0 = 00, R1 = 00, R2 = 00, R3 = 00, R4 = 00 (exp), R5 = 00 (counter), Zero = 1, ALU_out = 00, branch = 0, branch_conditional = 0, target = 0f, Mem[0] = 00, Mem[1] = 80, Mem[2] = xx, Mem[3] = xx
# Instruction = 000001000, Opcode = xxx
# Cycle 1: PC = 01, Instruction = 008, R0 = 00, R1 = 00, R2 = 00, R3 = 00, R4 = 00 (exp), R5 = 00 (counter), Zero = 1, ALU_out = 00, branch = 0, branch_conditional = 0, target = 00, Mem[0] = 00, Mem[1] = 80, Mem[2] = xx, Mem[3] = xx
# Cycle: Branch = 0, Branch_conditional = 0, Zero = 1, Target = 00, Current PC = 01, Next PC = 00000002
# Instruction = 100000001, Opcode = xxx
# Cycle 2: PC = 02, Instruction = 101, R0 = 00, R1 = 00, R2 = 00, R3 = 00, R4 = 00 (exp), R5 = 00 (counter), Zero = 1, ALU_out = 00, branch = 0, branch_conditional = 0, target = 0f, Mem[0] = 00, Mem[1] = 80, Mem[2] = xx, Mem[3] = xx
# Instruction = 100000000, Opcode = xxx
# Cycle: Branch = 0, Branch_conditional = 0, Zero = 1, Target = 0f, Current PC = 00, Next PC = 00000001
# Cycle 3: PC = 00, Instruction = 100, R0 = 00, R1 = 00, R2 = 00, R3 = 00, R4 = 00 (exp), R5 = 00 (counter), Zero = 1, ALU_out = 00, branch = 0, branch_conditional = 0, target = 0f, Mem[0] = 00, Mem[1] = 80, Mem[2] = xx, Mem[3] = xx
# Instruction = 000001000, Opcode = xxx
# Cycle 4: PC = 01, Instruction = 008, R0 = 00, R1 = 00, R2 = 00, R3 = 00, R4 = 00 (exp), R5 = 00 (counter), Zero = 1, ALU_out = 00, branch = 0, branch_conditional = 0, target = 00, Mem[0] = 00, Mem[1] = 80, Mem[2] = xx, Mem[3] = xx
# Cycle: Branch = 0, Branch_conditional = 0, Zero = 1, Target = 00, Current PC = 01, Next PC = 00000002
# Instruction = 100000001, Opcode = xxx
# Cycle: Branch = 0, Branch_conditional = 0, Zero = 1, Target = 0f, Current PC = 02, Next PC = 00000003
# Cycle 5: PC = 02, Instruction = 101, R0 = 00, R1 = 00, R2 = 00, R3 = 00, R4 = 00 (exp), R5 = 00 (counter), Zero = 1, ALU_out = 00, branch = 0, branch_conditional = 0, target = 0f, Mem[0] = 00, Mem[1] = 80, Mem[2] = xx, Mem[3] = xx
# Instruction = 000010000, Opcode = xxx
# Cycle 6: PC = 03, Instruction = 010, R0 = 00, R1 = 00, R2 = 00, R3 = 00, R4 = 00 (exp), R5 = 00 (counter), Zero = 1, ALU_out = 00, branch = 0, branch_conditional = 0, target = 00, Mem[0] = 00, Mem[1] = 80, Mem[2] = xx, Mem[3] = xx
# Cycle: Branch = 0, Branch_conditional = 0, Zero = 1, Target = 00, Current PC = 03, Next PC = 00000004
# Instruction = 010011000, Opcode = xxx
# Cycle: Branch = 0, Branch_conditional = 0, Zero = 1, Target = 00, Current PC = 04, Next PC = 00000005
# Cycle 7: PC = 04, Instruction = 098, R0 = 00, R1 = 00, R2 = 00, R3 = 00, R4 = 00 (exp), R5 = 00 (counter), Zero = 1, ALU_out = 00, branch = 0, branch_conditional = 0, target = 00, Mem[0] = 00, Mem[1] = 80, Mem[2] = xx, Mem[3] = xx
# Instruction = 011000001, Opcode = xxx
# Cycle 8: PC = 05, Instruction = 0c1, R0 = 00, R1 = 00, R2 = 00, R3 = 00, R4 = 00 (exp), R5 = 00 (counter), Zero = 1, ALU_out = 00, branch = 0, branch_conditional = 0, target = 0f, Mem[0] = 00, Mem[1] = 80, Mem[2] = xx, Mem[3] = xx
# Cycle: Branch = 0, Branch_conditional = 0, Zero = 1, Target = 0f, Current PC = 05, Next PC = 00000006
# Instruction = 111000000, Opcode = xxx
# Cycle: Branch = 0, Branch_conditional = 0, Zero = 1, Target = 0f, Current PC = 06, Next PC = 00000007
# Cycle 9: PC = 06, Instruction = 1c0, R0 = 00, R1 = 00, R2 = 00, R3 = 00, R4 = 00 (exp), R5 = 00 (counter), Zero = 1, ALU_out = 00, branch = 0, branch_conditional = 0, target = 0f, Mem[0] = 00, Mem[1] = 80, Mem[2] = xx, Mem[3] = xx
# Instruction = 001000010, Opcode = xxx
# what's feeding the case 1000000000000000
# IN=0x8000,  DUT=0xxxxx, REF=0x00xx, MATH=0x8000
# Mismatch DUT vs REF: DUT=0xxxxx REF=0x00xx
# Mismatch DUT vs MATH: DUT=0xxxxx MATH=0x8000
# Scores so far: vs REF=0, vs MATH=0, tests=2
#  
# Instruction = 100000000, Opcode = xxx
# Cycle: Branch = 0, Branch_conditional = 0, Zero = 1, Target = 0f, Current PC = 00, Next PC = 00000001
# Cycle 0: PC = 00, Instruction = 100, R0 = 00, R1 = 00, R2 = 00, R3 = 00, R4 = 00 (exp), R5 = 00 (counter), Zero = 1, ALU_out = 00, branch = 0, branch_conditional = 0, target = 0f, Mem[0] = 01, Mem[1] = 00, Mem[2] = xx, Mem[3] = xx
# Instruction = 000001000, Opcode = xxx
# Cycle 1: PC = 01, Instruction = 008, R0 = 00, R1 = 00, R2 = 00, R3 = 00, R4 = 00 (exp), R5 = 00 (counter), Zero = 1, ALU_out = 00, branch = 0, branch_conditional = 0, target = 00, Mem[0] = 01, Mem[1] = 00, Mem[2] = xx, Mem[3] = xx
# Cycle: Branch = 0, Branch_conditional = 0, Zero = 1, Target = 00, Current PC = 01, Next PC = 00000002
# Instruction = 100000001, Opcode = xxx
# Cycle 2: PC = 02, Instruction = 101, R0 = 00, R1 = 00, R2 = 00, R3 = 00, R4 = 00 (exp), R5 = 00 (counter), Zero = 1, ALU_out = 00, branch = 0, branch_conditional = 0, target = 0f, Mem[0] = 01, Mem[1] = 00, Mem[2] = xx, Mem[3] = xx
# Instruction = 100000000, Opcode = xxx
# Cycle: Branch = 0, Branch_conditional = 0, Zero = 1, Target = 0f, Current PC = 00, Next PC = 00000001
# Cycle 3: PC = 00, Instruction = 100, R0 = 00, R1 = 00, R2 = 00, R3 = 00, R4 = 00 (exp), R5 = 00 (counter), Zero = 1, ALU_out = 00, branch = 0, branch_conditional = 0, target = 0f, Mem[0] = 01, Mem[1] = 00, Mem[2] = xx, Mem[3] = xx
# Instruction = 000001000, Opcode = xxx
# Cycle 4: PC = 01, Instruction = 008, R0 = 00, R1 = 00, R2 = 00, R3 = 00, R4 = 00 (exp), R5 = 00 (counter), Zero = 1, ALU_out = 00, branch = 0, branch_conditional = 0, target = 00, Mem[0] = 01, Mem[1] = 00, Mem[2] = xx, Mem[3] = xx
# Cycle: Branch = 0, Branch_conditional = 0, Zero = 1, Target = 00, Current PC = 01, Next PC = 00000002
# Instruction = 100000001, Opcode = xxx
# Cycle: Branch = 0, Branch_conditional = 0, Zero = 1, Target = 0f, Current PC = 02, Next PC = 00000003
# Cycle 5: PC = 02, Instruction = 101, R0 = 00, R1 = 00, R2 = 00, R3 = 00, R4 = 00 (exp), R5 = 00 (counter), Zero = 1, ALU_out = 00, branch = 0, branch_conditional = 0, target = 0f, Mem[0] = 01, Mem[1] = 00, Mem[2] = xx, Mem[3] = xx
# Instruction = 000010000, Opcode = xxx
# Cycle 6: PC = 03, Instruction = 010, R0 = 00, R1 = 00, R2 = 00, R3 = 00, R4 = 00 (exp), R5 = 00 (counter), Zero = 1, ALU_out = 00, branch = 0, branch_conditional = 0, target = 00, Mem[0] = 01, Mem[1] = 00, Mem[2] = xx, Mem[3] = xx
# Cycle: Branch = 0, Branch_conditional = 0, Zero = 1, Target = 00, Current PC = 03, Next PC = 00000004
# Instruction = 010011000, Opcode = xxx
# Cycle: Branch = 0, Branch_conditional = 0, Zero = 1, Target = 00, Current PC = 04, Next PC = 00000005
# Cycle 7: PC = 04, Instruction = 098, R0 = 00, R1 = 00, R2 = 00, R3 = 00, R4 = 00 (exp), R5 = 00 (counter), Zero = 1, ALU_out = 00, branch = 0, branch_conditional = 0, target = 00, Mem[0] = 01, Mem[1] = 00, Mem[2] = xx, Mem[3] = xx
# Instruction = 011000001, Opcode = xxx
# Cycle 8: PC = 05, Instruction = 0c1, R0 = 00, R1 = 00, R2 = 00, R3 = 00, R4 = 00 (exp), R5 = 00 (counter), Zero = 1, ALU_out = 00, branch = 0, branch_conditional = 0, target = 0f, Mem[0] = 01, Mem[1] = 00, Mem[2] = xx, Mem[3] = xx
# Cycle: Branch = 0, Branch_conditional = 0, Zero = 1, Target = 0f, Current PC = 05, Next PC = 00000006
# Instruction = 111000000, Opcode = xxx
# Cycle: Branch = 0, Branch_conditional = 0, Zero = 1, Target = 0f, Current PC = 06, Next PC = 00000007
# Cycle 9: PC = 06, Instruction = 1c0, R0 = 00, R1 = 00, R2 = 00, R3 = 00, R4 = 00 (exp), R5 = 00 (counter), Zero = 1, ALU_out = 00, branch = 0, branch_conditional = 0, target = 0f, Mem[0] = 01, Mem[1] = 00, Mem[2] = xx, Mem[3] = xx
# Instruction = 001000010, Opcode = xxx
# what's feeding the case 0000000000000001
# IN=0x0001,  DUT=0xxxxx, REF=0x00xx, MATH=0x1c00
# Mismatch DUT vs REF: DUT=0xxxxx REF=0x00xx
# Mismatch DUT vs MATH: DUT=0xxxxx MATH=0x1c00
# Scores so far: vs REF=0, vs MATH=0, tests=3
#  
# Instruction = 100000000, Opcode = xxx
# Cycle: Branch = 0, Branch_conditional = 0, Zero = 1, Target = 0f, Current PC = 00, Next PC = 00000001
# Cycle 0: PC = 00, Instruction = 100, R0 = 00, R1 = 00, R2 = 00, R3 = 00, R4 = 00 (exp), R5 = 00 (counter), Zero = 1, ALU_out = 00, branch = 0, branch_conditional = 0, target = 0f, Mem[0] = 01, Mem[1] = 80, Mem[2] = xx, Mem[3] = xx
# Instruction = 000001000, Opcode = xxx
# Cycle 1: PC = 01, Instruction = 008, R0 = 00, R1 = 00, R2 = 00, R3 = 00, R4 = 00 (exp), R5 = 00 (counter), Zero = 1, ALU_out = 00, branch = 0, branch_conditional = 0, target = 00, Mem[0] = 01, Mem[1] = 80, Mem[2] = xx, Mem[3] = xx
# Cycle: Branch = 0, Branch_conditional = 0, Zero = 1, Target = 00, Current PC = 01, Next PC = 00000002
# Instruction = 100000001, Opcode = xxx
# Cycle 2: PC = 02, Instruction = 101, R0 = 00, R1 = 00, R2 = 00, R3 = 00, R4 = 00 (exp), R5 = 00 (counter), Zero = 1, ALU_out = 00, branch = 0, branch_conditional = 0, target = 0f, Mem[0] = 01, Mem[1] = 80, Mem[2] = xx, Mem[3] = xx
# Instruction = 100000000, Opcode = xxx
# Cycle: Branch = 0, Branch_conditional = 0, Zero = 1, Target = 0f, Current PC = 00, Next PC = 00000001
# Cycle 3: PC = 00, Instruction = 100, R0 = 00, R1 = 00, R2 = 00, R3 = 00, R4 = 00 (exp), R5 = 00 (counter), Zero = 1, ALU_out = 00, branch = 0, branch_conditional = 0, target = 0f, Mem[0] = 01, Mem[1] = 80, Mem[2] = xx, Mem[3] = xx
# Instruction = 000001000, Opcode = xxx
# Cycle 4: PC = 01, Instruction = 008, R0 = 00, R1 = 00, R2 = 00, R3 = 00, R4 = 00 (exp), R5 = 00 (counter), Zero = 1, ALU_out = 00, branch = 0, branch_conditional = 0, target = 00, Mem[0] = 01, Mem[1] = 80, Mem[2] = xx, Mem[3] = xx
# Cycle: Branch = 0, Branch_conditional = 0, Zero = 1, Target = 00, Current PC = 01, Next PC = 00000002
# Instruction = 100000001, Opcode = xxx
# Cycle: Branch = 0, Branch_conditional = 0, Zero = 1, Target = 0f, Current PC = 02, Next PC = 00000003
# Cycle 5: PC = 02, Instruction = 101, R0 = 00, R1 = 00, R2 = 00, R3 = 00, R4 = 00 (exp), R5 = 00 (counter), Zero = 1, ALU_out = 00, branch = 0, branch_conditional = 0, target = 0f, Mem[0] = 01, Mem[1] = 80, Mem[2] = xx, Mem[3] = xx
# Instruction = 000010000, Opcode = xxx
# Cycle 6: PC = 03, Instruction = 010, R0 = 00, R1 = 00, R2 = 00, R3 = 00, R4 = 00 (exp), R5 = 00 (counter), Zero = 1, ALU_out = 00, branch = 0, branch_conditional = 0, target = 00, Mem[0] = 01, Mem[1] = 80, Mem[2] = xx, Mem[3] = xx
# Cycle: Branch = 0, Branch_conditional = 0, Zero = 1, Target = 00, Current PC = 03, Next PC = 00000004
# Instruction = 010011000, Opcode = xxx
# Cycle: Branch = 0, Branch_conditional = 0, Zero = 1, Target = 00, Current PC = 04, Next PC = 00000005
# Cycle 7: PC = 04, Instruction = 098, R0 = 00, R1 = 00, R2 = 00, R3 = 00, R4 = 00 (exp), R5 = 00 (counter), Zero = 1, ALU_out = 00, branch = 0, branch_conditional = 0, target = 00, Mem[0] = 01, Mem[1] = 80, Mem[2] = xx, Mem[3] = xx
# Instruction = 011000001, Opcode = xxx
# Cycle 8: PC = 05, Instruction = 0c1, R0 = 00, R1 = 00, R2 = 00, R3 = 00, R4 = 00 (exp), R5 = 00 (counter), Zero = 1, ALU_out = 00, branch = 0, branch_conditional = 0, target = 0f, Mem[0] = 01, Mem[1] = 80, Mem[2] = xx, Mem[3] = xx
# Cycle: Branch = 0, Branch_conditional = 0, Zero = 1, Target = 0f, Current PC = 05, Next PC = 00000006
# Instruction = 111000000, Opcode = xxx
# Cycle: Branch = 0, Branch_conditional = 0, Zero = 1, Target = 0f, Current PC = 06, Next PC = 00000007
# Cycle 9: PC = 06, Instruction = 1c0, R0 = 00, R1 = 00, R2 = 00, R3 = 00, R4 = 00 (exp), R5 = 00 (counter), Zero = 1, ALU_out = 00, branch = 0, branch_conditional = 0, target = 0f, Mem[0] = 01, Mem[1] = 80, Mem[2] = xx, Mem[3] = xx
# Instruction = 001000010, Opcode = xxx
# what's feeding the case 1000000000000001
# IN=0x8001,  DUT=0xxxxx, REF=0x00xx, MATH=0x9c00
# Mismatch DUT vs REF: DUT=0xxxxx REF=0x00xx
# Mismatch DUT vs MATH: DUT=0xxxxx MATH=0x9c00
# Scores so far: vs REF=0, vs MATH=0, tests=4
#  
# Instruction = 100000000, Opcode = xxx
# Cycle: Branch = 0, Branch_conditional = 0, Zero = 1, Target = 0f, Current PC = 00, Next PC = 00000001
# Cycle 0: PC = 00, Instruction = 100, R0 = 00, R1 = 00, R2 = 00, R3 = 00, R4 = 00 (exp), R5 = 00 (counter), Zero = 1, ALU_out = 00, branch = 0, branch_conditional = 0, target = 0f, Mem[0] = 02, Mem[1] = 00, Mem[2] = xx, Mem[3] = xx
# Instruction = 000001000, Opcode = xxx
# Cycle 1: PC = 01, Instruction = 008, R0 = 00, R1 = 00, R2 = 00, R3 = 00, R4 = 00 (exp), R5 = 00 (counter), Zero = 1, ALU_out = 00, branch = 0, branch_conditional = 0, target = 00, Mem[0] = 02, Mem[1] = 00, Mem[2] = xx, Mem[3] = xx
# Cycle: Branch = 0, Branch_conditional = 0, Zero = 1, Target = 00, Current PC = 01, Next PC = 00000002
# Instruction = 100000001, Opcode = xxx
# Cycle 2: PC = 02, Instruction = 101, R0 = 00, R1 = 00, R2 = 00, R3 = 00, R4 = 00 (exp), R5 = 00 (counter), Zero = 1, ALU_out = 00, branch = 0, branch_conditional = 0, target = 0f, Mem[0] = 02, Mem[1] = 00, Mem[2] = xx, Mem[3] = xx
# Instruction = 100000000, Opcode = xxx
# Cycle: Branch = 0, Branch_conditional = 0, Zero = 1, Target = 0f, Current PC = 00, Next PC = 00000001
# Cycle 3: PC = 00, Instruction = 100, R0 = 00, R1 = 00, R2 = 00, R3 = 00, R4 = 00 (exp), R5 = 00 (counter), Zero = 1, ALU_out = 00, branch = 0, branch_conditional = 0, target = 0f, Mem[0] = 02, Mem[1] = 00, Mem[2] = xx, Mem[3] = xx
# Instruction = 000001000, Opcode = xxx
# Cycle 4: PC = 01, Instruction = 008, R0 = 00, R1 = 00, R2 = 00, R3 = 00, R4 = 00 (exp), R5 = 00 (counter), Zero = 1, ALU_out = 00, branch = 0, branch_conditional = 0, target = 00, Mem[0] = 02, Mem[1] = 00, Mem[2] = xx, Mem[3] = xx
# Cycle: Branch = 0, Branch_conditional = 0, Zero = 1, Target = 00, Current PC = 01, Next PC = 00000002
# Instruction = 100000001, Opcode = xxx
# Cycle: Branch = 0, Branch_conditional = 0, Zero = 1, Target = 0f, Current PC = 02, Next PC = 00000003
# Cycle 5: PC = 02, Instruction = 101, R0 = 00, R1 = 00, R2 = 00, R3 = 00, R4 = 00 (exp), R5 = 00 (counter), Zero = 1, ALU_out = 00, branch = 0, branch_conditional = 0, target = 0f, Mem[0] = 02, Mem[1] = 00, Mem[2] = xx, Mem[3] = xx
# Instruction = 000010000, Opcode = xxx
# Cycle 6: PC = 03, Instruction = 010, R0 = 00, R1 = 00, R2 = 00, R3 = 00, R4 = 00 (exp), R5 = 00 (counter), Zero = 1, ALU_out = 00, branch = 0, branch_conditional = 0, target = 00, Mem[0] = 02, Mem[1] = 00, Mem[2] = xx, Mem[3] = xx
# Cycle: Branch = 0, Branch_conditional = 0, Zero = 1, Target = 00, Current PC = 03, Next PC = 00000004
# Instruction = 010011000, Opcode = xxx
# Cycle: Branch = 0, Branch_conditional = 0, Zero = 1, Target = 00, Current PC = 04, Next PC = 00000005
# Cycle 7: PC = 04, Instruction = 098, R0 = 00, R1 = 00, R2 = 00, R3 = 00, R4 = 00 (exp), R5 = 00 (counter), Zero = 1, ALU_out = 00, branch = 0, branch_conditional = 0, target = 00, Mem[0] = 02, Mem[1] = 00, Mem[2] = xx, Mem[3] = xx
# Instruction = 011000001, Opcode = xxx
# Cycle 8: PC = 05, Instruction = 0c1, R0 = 00, R1 = 00, R2 = 00, R3 = 00, R4 = 00 (exp), R5 = 00 (counter), Zero = 1, ALU_out = 00, branch = 0, branch_conditional = 0, target = 0f, Mem[0] = 02, Mem[1] = 00, Mem[2] = xx, Mem[3] = xx
# Cycle: Branch = 0, Branch_conditional = 0, Zero = 1, Target = 0f, Current PC = 05, Next PC = 00000006
# Instruction = 111000000, Opcode = xxx
# Cycle: Branch = 0, Branch_conditional = 0, Zero = 1, Target = 0f, Current PC = 06, Next PC = 00000007
# Cycle 9: PC = 06, Instruction = 1c0, R0 = 00, R1 = 00, R2 = 00, R3 = 00, R4 = 00 (exp), R5 = 00 (counter), Zero = 1, ALU_out = 00, branch = 0, branch_conditional = 0, target = 0f, Mem[0] = 02, Mem[1] = 00, Mem[2] = xx, Mem[3] = xx
# Instruction = 001000010, Opcode = xxx
# what's feeding the case 0000000000000010
# IN=0x0002,  DUT=0xxxxx, REF=0x00xx, MATH=0x2000
# Mismatch DUT vs REF: DUT=0xxxxx REF=0x00xx
# Mismatch DUT vs MATH: DUT=0xxxxx MATH=0x2000
# Scores so far: vs REF=0, vs MATH=0, tests=5
#  
# Instruction = 100000000, Opcode = xxx
# Cycle: Branch = 0, Branch_conditional = 0, Zero = 1, Target = 0f, Current PC = 00, Next PC = 00000001
# Cycle 0: PC = 00, Instruction = 100, R0 = 00, R1 = 00, R2 = 00, R3 = 00, R4 = 00 (exp), R5 = 00 (counter), Zero = 1, ALU_out = 00, branch = 0, branch_conditional = 0, target = 0f, Mem[0] = 02, Mem[1] = 80, Mem[2] = xx, Mem[3] = xx
# Instruction = 000001000, Opcode = xxx
# Cycle 1: PC = 01, Instruction = 008, R0 = 00, R1 = 00, R2 = 00, R3 = 00, R4 = 00 (exp), R5 = 00 (counter), Zero = 1, ALU_out = 00, branch = 0, branch_conditional = 0, target = 00, Mem[0] = 02, Mem[1] = 80, Mem[2] = xx, Mem[3] = xx
# Cycle: Branch = 0, Branch_conditional = 0, Zero = 1, Target = 00, Current PC = 01, Next PC = 00000002
# Instruction = 100000001, Opcode = xxx
# Cycle 2: PC = 02, Instruction = 101, R0 = 00, R1 = 00, R2 = 00, R3 = 00, R4 = 00 (exp), R5 = 00 (counter), Zero = 1, ALU_out = 00, branch = 0, branch_conditional = 0, target = 0f, Mem[0] = 02, Mem[1] = 80, Mem[2] = xx, Mem[3] = xx
# Instruction = 100000000, Opcode = xxx
# Cycle: Branch = 0, Branch_conditional = 0, Zero = 1, Target = 0f, Current PC = 00, Next PC = 00000001
# Cycle 3: PC = 00, Instruction = 100, R0 = 00, R1 = 00, R2 = 00, R3 = 00, R4 = 00 (exp), R5 = 00 (counter), Zero = 1, ALU_out = 00, branch = 0, branch_conditional = 0, target = 0f, Mem[0] = 02, Mem[1] = 80, Mem[2] = xx, Mem[3] = xx
# Instruction = 000001000, Opcode = xxx
# Cycle 4: PC = 01, Instruction = 008, R0 = 00, R1 = 00, R2 = 00, R3 = 00, R4 = 00 (exp), R5 = 00 (counter), Zero = 1, ALU_out = 00, branch = 0, branch_conditional = 0, target = 00, Mem[0] = 02, Mem[1] = 80, Mem[2] = xx, Mem[3] = xx
# Cycle: Branch = 0, Branch_conditional = 0, Zero = 1, Target = 00, Current PC = 01, Next PC = 00000002
# Instruction = 100000001, Opcode = xxx
# Cycle: Branch = 0, Branch_conditional = 0, Zero = 1, Target = 0f, Current PC = 02, Next PC = 00000003
# Cycle 5: PC = 02, Instruction = 101, R0 = 00, R1 = 00, R2 = 00, R3 = 00, R4 = 00 (exp), R5 = 00 (counter), Zero = 1, ALU_out = 00, branch = 0, branch_conditional = 0, target = 0f, Mem[0] = 02, Mem[1] = 80, Mem[2] = xx, Mem[3] = xx
# Instruction = 000010000, Opcode = xxx
